<?xml version="1.0" encoding="UTF-8" standalone="no"?>
<!-- Created with Inkscape (http://www.inkscape.org/) -->
<svg
   xmlns:dc="http://purl.org/dc/elements/1.1/"
   xmlns:cc="http://web.resource.org/cc/"
   xmlns:rdf="http://www.w3.org/1999/02/22-rdf-syntax-ns#"
   xmlns:svg="http://www.w3.org/2000/svg"
   xmlns="http://www.w3.org/2000/svg"
   xmlns:xlink="http://www.w3.org/1999/xlink"
   xmlns:sodipodi="http://sodipodi.sourceforge.net/DTD/sodipodi-0.dtd"
   xmlns:inkscape="http://www.inkscape.org/namespaces/inkscape"
   id="svg2"
   sodipodi:version="0.32"
   inkscape:version="0.45"
   width="410"
   height="335"
   version="1.0"
   sodipodi:docbase="/home/noemie/Dessin vectoriel/atomes"
   sodipodi:docname="carbone7.svg"
   inkscape:output_extension="org.inkscape.output.svg.inkscape"
   sodipodi:modified="true">
  <metadata
     id="metadata7">
    <rdf:RDF>
      <cc:Work
         rdf:about="">
        <dc:format>image/svg+xml</dc:format>
        <dc:type
           rdf:resource="http://purl.org/dc/dcmitype/StillImage" />
      </cc:Work>
    </rdf:RDF>
  </metadata>
  <defs
     id="defs5">
    <linearGradient
       inkscape:collect="always"
       id="linearGradient28887">
      <stop
         style="stop-color:#ffffff;stop-opacity:1;"
         offset="0"
         id="stop28889" />
      <stop
         style="stop-color:#ffffff;stop-opacity:0;"
         offset="1"
         id="stop28891" />
    </linearGradient>
    <linearGradient
       id="linearGradient3291">
      <stop
         style="stop-color:#000000;stop-opacity:1"
         offset="0"
         id="stop3293" />
      <stop
         style="stop-color:#000000;stop-opacity:0"
         offset="1"
         id="stop3295" />
    </linearGradient>
    <radialGradient
       cx="63.912209"
       cy="115.70919"
       r="63.912209"
       fx="75.857941"
       fy="115.70919"
       id="radialGradient2595"
       xlink:href="#linearGradient3291"
       gradientUnits="userSpaceOnUse"
       gradientTransform="matrix(1,0,0,0.197802,0,92.82166)" />
    <radialGradient
       inkscape:collect="always"
       xlink:href="#linearGradient28887"
       id="radialGradient29884"
       gradientUnits="userSpaceOnUse"
       gradientTransform="matrix(0.3414699,-1.1442297e-8,1.9288194e-7,5.7561202,145.98165,-340.2325)"
       cx="221.67804"
       cy="77.259727"
       fx="221.67804"
       fy="77.259727"
       r="14.495839" />
    <radialGradient
       inkscape:collect="always"
       xlink:href="#linearGradient28887"
       id="radialGradient29886"
       gradientUnits="userSpaceOnUse"
       gradientTransform="matrix(0.3414699,-1.1442297e-8,1.9288194e-7,5.7561202,145.98165,-340.2325)"
       cx="221.67804"
       cy="77.259727"
       fx="221.67804"
       fy="77.259727"
       r="14.495839" />
    <radialGradient
       inkscape:collect="always"
       xlink:href="#linearGradient28887"
       id="radialGradient29888"
       gradientUnits="userSpaceOnUse"
       gradientTransform="matrix(0.3414699,-1.1442297e-8,1.9288194e-7,5.7561202,145.98165,-340.2325)"
       cx="221.67804"
       cy="77.259727"
       fx="221.67804"
       fy="77.259727"
       r="14.495839" />
    <radialGradient
       inkscape:collect="always"
       xlink:href="#linearGradient28887"
       id="radialGradient29890"
       gradientUnits="userSpaceOnUse"
       gradientTransform="matrix(0.3414699,-1.1442297e-8,1.9288194e-7,5.7561202,145.98165,-340.2325)"
       cx="221.67804"
       cy="77.259727"
       fx="221.67804"
       fy="77.259727"
       r="14.495839" />
    <radialGradient
       inkscape:collect="always"
       xlink:href="#linearGradient28887"
       id="radialGradient29902"
       gradientUnits="userSpaceOnUse"
       gradientTransform="matrix(0.3414699,-1.1442297e-8,1.9288194e-7,5.7561202,145.98165,-340.2325)"
       cx="221.67804"
       cy="77.259727"
       fx="221.67804"
       fy="77.259727"
       r="14.495839" />
    <radialGradient
       inkscape:collect="always"
       xlink:href="#linearGradient28887"
       id="radialGradient29904"
       gradientUnits="userSpaceOnUse"
       gradientTransform="matrix(0.3414699,-1.1442297e-8,1.9288194e-7,5.7561202,145.98165,-340.2325)"
       cx="221.67804"
       cy="77.259727"
       fx="221.67804"
       fy="77.259727"
       r="14.495839" />
    <radialGradient
       inkscape:collect="always"
       xlink:href="#linearGradient28887"
       id="radialGradient29906"
       gradientUnits="userSpaceOnUse"
       gradientTransform="matrix(0.3414699,-1.1442297e-8,1.9288194e-7,5.7561202,145.98165,-340.2325)"
       cx="221.67804"
       cy="77.259727"
       fx="221.67804"
       fy="77.259727"
       r="14.495839" />
    <radialGradient
       inkscape:collect="always"
       xlink:href="#linearGradient28887"
       id="radialGradient29908"
       gradientUnits="userSpaceOnUse"
       gradientTransform="matrix(0.3414699,-1.1442297e-8,1.9288194e-7,5.7561202,145.98165,-340.2325)"
       cx="221.67804"
       cy="77.259727"
       fx="221.67804"
       fy="77.259727"
       r="14.495839" />
  </defs>
  <sodipodi:namedview
     inkscape:window-height="626"
     inkscape:window-width="910"
     inkscape:pageshadow="2"
     inkscape:pageopacity="0.0"
     guidetolerance="10.0"
     gridtolerance="10.0"
     objecttolerance="10.0"
     borderopacity="1.0"
     bordercolor="#666666"
     pagecolor="#ffffff"
     id="base"
     showgrid="false"
     inkscape:zoom="1"
     inkscape:cx="64.783614"
     inkscape:cy="169.5961"
     inkscape:window-x="0"
     inkscape:window-y="49"
     inkscape:current-layer="svg2" />
  <rect
     style="opacity:1;fill:#000000;fill-opacity:1;stroke:none;stroke-width:0.1;stroke-linecap:round;stroke-linejoin:round;stroke-miterlimit:4;stroke-dasharray:none;stroke-dashoffset:0;stroke-opacity:1"
     id="rect4212"
     width="412"
     height="338"
     x="0"
     y="-2.9999998" />
  <g
     style="opacity:0.8;fill:#ffffff;fill-opacity:1"
     id="g20660"
     transform="matrix(14.666156,0,0,1.4503286,-30.313065,229.15971)">
    <g
       id="g20662"
       inkscape:transform-center-y="6.6640629"
       inkscape:transform-center-x="-0.2656247"
       transform="matrix(-1,0,0,-1,32.360087,34.070863)"
       style="fill:#ffffff;fill-opacity:1">
      <path
         style="opacity:0.5;fill:#ffffff;fill-opacity:1;stroke:none;stroke-width:0.1;stroke-linecap:round;stroke-linejoin:round;stroke-miterlimit:4;stroke-dasharray:none;stroke-dashoffset:0;stroke-opacity:1"
         d="M 16.283653,17.059018 L 18.285277,13.523999 L 19.79624,3.0433006 L 16.086334,13.00367 L 16.283653,17.059018 z "
         id="path20664"
         sodipodi:nodetypes="ccccc" />
      <path
         sodipodi:nodetypes="ccccc"
         id="path20666"
         d="M 16.272582,17.085754 L 19.120932,14.189245 L 23.293011,4.4567356 L 17.131587,13.117519 L 16.272582,17.085754 z "
         style="opacity:0.5;fill:#ffffff;fill-opacity:1;stroke:none;stroke-width:0.1;stroke-linecap:round;stroke-linejoin:round;stroke-miterlimit:4;stroke-dasharray:none;stroke-dashoffset:0;stroke-opacity:1" />
      <path
         style="opacity:0.5;fill:#ffffff;fill-opacity:1;stroke:none;stroke-width:0.1;stroke-linecap:round;stroke-linejoin:round;stroke-miterlimit:4;stroke-dasharray:none;stroke-dashoffset:0;stroke-opacity:1"
         d="M 16.232006,17.12633 L 20.147005,16.042057 L 28.626386,9.6994936 L 18.960042,14.119241 L 16.232006,17.12633 z "
         id="path20668"
         sodipodi:nodetypes="ccccc" />
      <path
         sodipodi:nodetypes="ccccc"
         id="path20670"
         d="M 16.254964,17.108712 L 19.755932,15.048109 L 26.304808,6.7270366 L 18.111755,13.498019 L 16.254964,17.108712 z "
         style="opacity:0.5;fill:#ffffff;fill-opacity:1;stroke:none;stroke-width:0.1;stroke-linecap:round;stroke-linejoin:round;stroke-miterlimit:4;stroke-dasharray:none;stroke-dashoffset:0;stroke-opacity:1" />
      <path
         style="opacity:0.5;fill:#ffffff;fill-opacity:1;stroke:none;stroke-width:0.1;stroke-linecap:round;stroke-linejoin:round;stroke-miterlimit:4;stroke-dasharray:none;stroke-dashoffset:0;stroke-opacity:1"
         d="M 16.20527,17.137406 L 20.267503,17.10335 L 30.099527,13.171533 L 19.618644,14.938844 L 16.20527,17.137406 z "
         id="path20672"
         sodipodi:nodetypes="ccccc" />
      <path
         sodipodi:nodetypes="ccccc"
         id="path20674"
         d="M 16.28743,17.03033 L 17.30592,13.097701 L 16.052793,2.5830636 L 15.047232,13.164229 L 16.28743,17.03033 z "
         style="opacity:0.5;fill:#ffffff;fill-opacity:1;stroke:none;stroke-width:0.1;stroke-linecap:round;stroke-linejoin:round;stroke-miterlimit:4;stroke-dasharray:none;stroke-dashoffset:0;stroke-opacity:1" />
      <path
         style="opacity:0.5;fill:#ffffff;fill-opacity:1;stroke:none;stroke-width:0.1;stroke-linecap:round;stroke-linejoin:round;stroke-miterlimit:4;stroke-dasharray:none;stroke-dashoffset:0;stroke-opacity:1"
         d="M 16.283653,17.001635 L 16.249602,12.939408 L 12.317779,3.1073776 L 14.085096,13.588261 L 16.283653,17.001635 z "
         id="path20676"
         sodipodi:nodetypes="ccccc" />
      <path
         sodipodi:nodetypes="ccccc"
         id="path20678"
         d="M 16.272582,16.974899 L 15.188303,13.059901 L 8.8457403,4.5805186 L 13.265487,14.246863 L 16.272582,16.974899 z "
         style="opacity:0.5;fill:#ffffff;fill-opacity:1;stroke:none;stroke-width:0.1;stroke-linecap:round;stroke-linejoin:round;stroke-miterlimit:4;stroke-dasharray:none;stroke-dashoffset:0;stroke-opacity:1" />
      <path
         style="opacity:0.5;fill:#ffffff;fill-opacity:1;stroke:none;stroke-width:0.1;stroke-linecap:round;stroke-linejoin:round;stroke-miterlimit:4;stroke-dasharray:none;stroke-dashoffset:0;stroke-opacity:1"
         d="M 16.254964,16.951942 L 14.194356,13.450973 L 5.8732887,6.9020966 L 12.644265,15.09515 L 16.254964,16.951942 z "
         id="path20680"
         sodipodi:nodetypes="ccccc" />
      <path
         sodipodi:nodetypes="ccccc"
         id="path20682"
         d="M 16.232006,16.934323 L 13.335491,14.085974 L 3.6029818,9.9138936 L 12.263765,16.075318 L 16.232006,16.934323 z "
         style="opacity:0.5;fill:#ffffff;fill-opacity:1;stroke:none;stroke-width:0.1;stroke-linecap:round;stroke-linejoin:round;stroke-miterlimit:4;stroke-dasharray:none;stroke-dashoffset:0;stroke-opacity:1" />
      <path
         style="opacity:0.5;fill:#ffffff;fill-opacity:1;stroke:none;stroke-width:0.1;stroke-linecap:round;stroke-linejoin:round;stroke-miterlimit:4;stroke-dasharray:none;stroke-dashoffset:0;stroke-opacity:1"
         d="M 16.20527,16.923253 L 12.670245,14.921629 L 2.1895523,13.410671 L 12.149916,17.120571 L 16.20527,16.923253 z "
         id="path20684"
         sodipodi:nodetypes="ccccc" />
      <path
         sodipodi:nodetypes="ccccc"
         id="path20686"
         d="M 16.176576,16.919475 L 12.243947,15.900986 L 1.7293103,17.154113 L 12.310481,18.159674 L 16.176576,16.919475 z "
         style="opacity:0.5;fill:#ffffff;fill-opacity:1;stroke:none;stroke-width:0.1;stroke-linecap:round;stroke-linejoin:round;stroke-miterlimit:4;stroke-dasharray:none;stroke-dashoffset:0;stroke-opacity:1" />
    </g>
    <path
       style="opacity:0.5;fill:#ffffff;fill-opacity:1;stroke:none;stroke-width:0.1;stroke-linecap:round;stroke-linejoin:round;stroke-miterlimit:4;stroke-dasharray:none;stroke-dashoffset:0;stroke-opacity:1"
       d="M 16.283653,17.059018 L 18.285277,13.523999 L 19.79624,3.0433006 L 16.086334,13.00367 L 16.283653,17.059018 z "
       id="path20688"
       sodipodi:nodetypes="ccccc" />
    <path
       sodipodi:nodetypes="ccccc"
       id="path20690"
       d="M 16.272582,17.085754 L 19.120932,14.189245 L 23.293011,4.4567356 L 17.131587,13.117519 L 16.272582,17.085754 z "
       style="opacity:0.5;fill:#ffffff;fill-opacity:1;stroke:none;stroke-width:0.1;stroke-linecap:round;stroke-linejoin:round;stroke-miterlimit:4;stroke-dasharray:none;stroke-dashoffset:0;stroke-opacity:1" />
    <path
       style="opacity:0.5;fill:#ffffff;fill-opacity:1;stroke:none;stroke-width:0.1;stroke-linecap:round;stroke-linejoin:round;stroke-miterlimit:4;stroke-dasharray:none;stroke-dashoffset:0;stroke-opacity:1"
       d="M 16.232006,17.12633 L 20.147005,16.042057 L 28.626386,9.6994936 L 18.960042,14.119241 L 16.232006,17.12633 z "
       id="path20692"
       sodipodi:nodetypes="ccccc" />
    <path
       sodipodi:nodetypes="ccccc"
       id="path20694"
       d="M 16.254964,17.108712 L 19.755932,15.048109 L 26.304808,6.7270366 L 18.111755,13.498019 L 16.254964,17.108712 z "
       style="opacity:0.5;fill:#ffffff;fill-opacity:1;stroke:none;stroke-width:0.1;stroke-linecap:round;stroke-linejoin:round;stroke-miterlimit:4;stroke-dasharray:none;stroke-dashoffset:0;stroke-opacity:1" />
    <path
       style="opacity:0.5;fill:#ffffff;fill-opacity:1;stroke:none;stroke-width:0.1;stroke-linecap:round;stroke-linejoin:round;stroke-miterlimit:4;stroke-dasharray:none;stroke-dashoffset:0;stroke-opacity:1"
       d="M 16.20527,17.137406 L 20.267503,17.10335 L 30.099527,13.171533 L 19.618644,14.938844 L 16.20527,17.137406 z "
       id="path20696"
       sodipodi:nodetypes="ccccc" />
    <path
       sodipodi:nodetypes="ccccc"
       id="path20698"
       d="M 16.28743,17.03033 L 17.30592,13.097701 L 16.052793,2.5830636 L 15.047232,13.164229 L 16.28743,17.03033 z "
       style="opacity:0.5;fill:#ffffff;fill-opacity:1;stroke:none;stroke-width:0.1;stroke-linecap:round;stroke-linejoin:round;stroke-miterlimit:4;stroke-dasharray:none;stroke-dashoffset:0;stroke-opacity:1" />
    <path
       style="opacity:0.5;fill:#ffffff;fill-opacity:1;stroke:none;stroke-width:0.1;stroke-linecap:round;stroke-linejoin:round;stroke-miterlimit:4;stroke-dasharray:none;stroke-dashoffset:0;stroke-opacity:1"
       d="M 16.283653,17.001635 L 16.249602,12.939408 L 12.317779,3.1073776 L 14.085096,13.588261 L 16.283653,17.001635 z "
       id="path20700"
       sodipodi:nodetypes="ccccc" />
    <path
       sodipodi:nodetypes="ccccc"
       id="path20702"
       d="M 16.272582,16.974899 L 15.188303,13.059901 L 8.8457403,4.5805186 L 13.265487,14.246863 L 16.272582,16.974899 z "
       style="opacity:0.5;fill:#ffffff;fill-opacity:1;stroke:none;stroke-width:0.1;stroke-linecap:round;stroke-linejoin:round;stroke-miterlimit:4;stroke-dasharray:none;stroke-dashoffset:0;stroke-opacity:1" />
    <path
       style="opacity:0.5;fill:#ffffff;fill-opacity:1;stroke:none;stroke-width:0.1;stroke-linecap:round;stroke-linejoin:round;stroke-miterlimit:4;stroke-dasharray:none;stroke-dashoffset:0;stroke-opacity:1"
       d="M 16.254964,16.951942 L 14.194356,13.450973 L 5.8732887,6.9020966 L 12.644265,15.09515 L 16.254964,16.951942 z "
       id="path20704"
       sodipodi:nodetypes="ccccc" />
    <path
       sodipodi:nodetypes="ccccc"
       id="path20706"
       d="M 16.232006,16.934323 L 13.335491,14.085974 L 3.6029818,9.9138936 L 12.263765,16.075318 L 16.232006,16.934323 z "
       style="opacity:0.5;fill:#ffffff;fill-opacity:1;stroke:none;stroke-width:0.1;stroke-linecap:round;stroke-linejoin:round;stroke-miterlimit:4;stroke-dasharray:none;stroke-dashoffset:0;stroke-opacity:1" />
    <path
       style="opacity:0.5;fill:#ffffff;fill-opacity:1;stroke:none;stroke-width:0.1;stroke-linecap:round;stroke-linejoin:round;stroke-miterlimit:4;stroke-dasharray:none;stroke-dashoffset:0;stroke-opacity:1"
       d="M 16.20527,16.923253 L 12.670245,14.921629 L 2.1895523,13.410671 L 12.149916,17.120571 L 16.20527,16.923253 z "
       id="path20708"
       sodipodi:nodetypes="ccccc" />
    <path
       sodipodi:nodetypes="ccccc"
       id="path20710"
       d="M 16.176576,16.919475 L 12.243947,15.900986 L 1.7293103,17.154113 L 12.310481,18.159674 L 16.176576,16.919475 z "
       style="opacity:0.5;fill:#ffffff;fill-opacity:1;stroke:none;stroke-width:0.1;stroke-linecap:round;stroke-linejoin:round;stroke-miterlimit:4;stroke-dasharray:none;stroke-dashoffset:0;stroke-opacity:1" />
  </g>
  <g
     id="g19664"
     style="opacity:0.3"
     transform="matrix(14.666156,0,0,1.4503286,-30.313065,229.15971)">
    <g
       transform="matrix(-1,0,0,-1,32.360087,34.070863)"
       inkscape:transform-center-x="-0.2656247"
       inkscape:transform-center-y="6.6640629"
       id="g19650">
      <path
         sodipodi:nodetypes="ccccc"
         id="path19626"
         d="M 16.283653,17.059018 L 18.285277,13.523999 L 19.79624,3.0433006 L 16.086334,13.00367 L 16.283653,17.059018 z "
         style="opacity:0.5;fill:#ff00ff;fill-opacity:1;stroke:none;stroke-width:0.1;stroke-linecap:round;stroke-linejoin:round;stroke-miterlimit:4;stroke-dasharray:none;stroke-dashoffset:0;stroke-opacity:1" />
      <path
         style="opacity:0.5;fill:#ffff00;fill-opacity:1;stroke:none;stroke-width:0.1;stroke-linecap:round;stroke-linejoin:round;stroke-miterlimit:4;stroke-dasharray:none;stroke-dashoffset:0;stroke-opacity:1"
         d="M 16.272582,17.085754 L 19.120932,14.189245 L 23.293011,4.4567356 L 17.131587,13.117519 L 16.272582,17.085754 z "
         id="path19628"
         sodipodi:nodetypes="ccccc" />
      <path
         sodipodi:nodetypes="ccccc"
         id="path19630"
         d="M 16.232006,17.12633 L 20.147005,16.042057 L 28.626386,9.6994936 L 18.960042,14.119241 L 16.232006,17.12633 z "
         style="opacity:0.5;fill:#ff00ff;fill-opacity:1;stroke:none;stroke-width:0.1;stroke-linecap:round;stroke-linejoin:round;stroke-miterlimit:4;stroke-dasharray:none;stroke-dashoffset:0;stroke-opacity:1" />
      <path
         style="opacity:0.5;fill:#00ffff;fill-opacity:1;stroke:none;stroke-width:0.1;stroke-linecap:round;stroke-linejoin:round;stroke-miterlimit:4;stroke-dasharray:none;stroke-dashoffset:0;stroke-opacity:1"
         d="M 16.254964,17.108712 L 19.755932,15.048109 L 26.304808,6.7270366 L 18.111755,13.498019 L 16.254964,17.108712 z "
         id="path19632"
         sodipodi:nodetypes="ccccc" />
      <path
         sodipodi:nodetypes="ccccc"
         id="path19634"
         d="M 16.20527,17.137406 L 20.267503,17.10335 L 30.099527,13.171533 L 19.618644,14.938844 L 16.20527,17.137406 z "
         style="opacity:0.5;fill:#ffff00;fill-opacity:1;stroke:none;stroke-width:0.1;stroke-linecap:round;stroke-linejoin:round;stroke-miterlimit:4;stroke-dasharray:none;stroke-dashoffset:0;stroke-opacity:1" />
      <path
         style="opacity:0.5;fill:#00ffff;fill-opacity:1;stroke:none;stroke-width:0.1;stroke-linecap:round;stroke-linejoin:round;stroke-miterlimit:4;stroke-dasharray:none;stroke-dashoffset:0;stroke-opacity:1"
         d="M 16.28743,17.03033 L 17.30592,13.097701 L 16.052793,2.5830636 L 15.047232,13.164229 L 16.28743,17.03033 z "
         id="path19636"
         sodipodi:nodetypes="ccccc" />
      <path
         sodipodi:nodetypes="ccccc"
         id="path19638"
         d="M 16.283653,17.001635 L 16.249602,12.939408 L 12.317779,3.1073776 L 14.085096,13.588261 L 16.283653,17.001635 z "
         style="opacity:0.5;fill:#ffff00;fill-opacity:1;stroke:none;stroke-width:0.1;stroke-linecap:round;stroke-linejoin:round;stroke-miterlimit:4;stroke-dasharray:none;stroke-dashoffset:0;stroke-opacity:1" />
      <path
         style="opacity:0.5;fill:#ff00ff;fill-opacity:1;stroke:none;stroke-width:0.1;stroke-linecap:round;stroke-linejoin:round;stroke-miterlimit:4;stroke-dasharray:none;stroke-dashoffset:0;stroke-opacity:1"
         d="M 16.272582,16.974899 L 15.188303,13.059901 L 8.8457403,4.5805186 L 13.265487,14.246863 L 16.272582,16.974899 z "
         id="path19640"
         sodipodi:nodetypes="ccccc" />
      <path
         sodipodi:nodetypes="ccccc"
         id="path19642"
         d="M 16.254964,16.951942 L 14.194356,13.450973 L 5.8732887,6.9020966 L 12.644265,15.09515 L 16.254964,16.951942 z "
         style="opacity:0.5;fill:#00ffff;fill-opacity:1;stroke:none;stroke-width:0.1;stroke-linecap:round;stroke-linejoin:round;stroke-miterlimit:4;stroke-dasharray:none;stroke-dashoffset:0;stroke-opacity:1" />
      <path
         style="opacity:0.5;fill:#ffff00;fill-opacity:1;stroke:none;stroke-width:0.1;stroke-linecap:round;stroke-linejoin:round;stroke-miterlimit:4;stroke-dasharray:none;stroke-dashoffset:0;stroke-opacity:1"
         d="M 16.232006,16.934323 L 13.335491,14.085974 L 3.6029818,9.9138936 L 12.263765,16.075318 L 16.232006,16.934323 z "
         id="path19644"
         sodipodi:nodetypes="ccccc" />
      <path
         sodipodi:nodetypes="ccccc"
         id="path19646"
         d="M 16.20527,16.923253 L 12.670245,14.921629 L 2.1895523,13.410671 L 12.149916,17.120571 L 16.20527,16.923253 z "
         style="opacity:0.5;fill:#ff00ff;fill-opacity:1;stroke:none;stroke-width:0.1;stroke-linecap:round;stroke-linejoin:round;stroke-miterlimit:4;stroke-dasharray:none;stroke-dashoffset:0;stroke-opacity:1" />
      <path
         style="opacity:0.5;fill:#00ffff;fill-opacity:1;stroke:none;stroke-width:0.1;stroke-linecap:round;stroke-linejoin:round;stroke-miterlimit:4;stroke-dasharray:none;stroke-dashoffset:0;stroke-opacity:1"
         d="M 16.176576,16.919475 L 12.243947,15.900986 L 1.7293103,17.154113 L 12.310481,18.159674 L 16.176576,16.919475 z "
         id="path19648"
         sodipodi:nodetypes="ccccc" />
    </g>
    <path
       sodipodi:nodetypes="ccccc"
       id="path40085"
       d="M 16.283653,17.059018 L 18.285277,13.523999 L 19.79624,3.0433006 L 16.086334,13.00367 L 16.283653,17.059018 z "
       style="opacity:0.5;fill:#ff00ff;fill-opacity:1;stroke:none;stroke-width:0.1;stroke-linecap:round;stroke-linejoin:round;stroke-miterlimit:4;stroke-dasharray:none;stroke-dashoffset:0;stroke-opacity:1" />
    <path
       style="opacity:0.5;fill:#ffff00;fill-opacity:1;stroke:none;stroke-width:0.1;stroke-linecap:round;stroke-linejoin:round;stroke-miterlimit:4;stroke-dasharray:none;stroke-dashoffset:0;stroke-opacity:1"
       d="M 16.272582,17.085754 L 19.120932,14.189245 L 23.293011,4.4567356 L 17.131587,13.117519 L 16.272582,17.085754 z "
       id="path40083"
       sodipodi:nodetypes="ccccc" />
    <path
       sodipodi:nodetypes="ccccc"
       id="path40077"
       d="M 16.232006,17.12633 L 20.147005,16.042057 L 28.626386,9.6994936 L 18.960042,14.119241 L 16.232006,17.12633 z "
       style="opacity:0.5;fill:#ff00ff;fill-opacity:1;stroke:none;stroke-width:0.1;stroke-linecap:round;stroke-linejoin:round;stroke-miterlimit:4;stroke-dasharray:none;stroke-dashoffset:0;stroke-opacity:1" />
    <path
       style="opacity:0.5;fill:#00ffff;fill-opacity:1;stroke:none;stroke-width:0.1;stroke-linecap:round;stroke-linejoin:round;stroke-miterlimit:4;stroke-dasharray:none;stroke-dashoffset:0;stroke-opacity:1"
       d="M 16.254964,17.108712 L 19.755932,15.048109 L 26.304808,6.7270366 L 18.111755,13.498019 L 16.254964,17.108712 z "
       id="path40079"
       sodipodi:nodetypes="ccccc" />
    <path
       sodipodi:nodetypes="ccccc"
       id="path40081"
       d="M 16.20527,17.137406 L 20.267503,17.10335 L 30.099527,13.171533 L 19.618644,14.938844 L 16.20527,17.137406 z "
       style="opacity:0.5;fill:#ffff00;fill-opacity:1;stroke:none;stroke-width:0.1;stroke-linecap:round;stroke-linejoin:round;stroke-miterlimit:4;stroke-dasharray:none;stroke-dashoffset:0;stroke-opacity:1" />
    <path
       style="opacity:0.5;fill:#00ffff;fill-opacity:1;stroke:none;stroke-width:0.1;stroke-linecap:round;stroke-linejoin:round;stroke-miterlimit:4;stroke-dasharray:none;stroke-dashoffset:0;stroke-opacity:1"
       d="M 16.28743,17.03033 L 17.30592,13.097701 L 16.052793,2.5830636 L 15.047232,13.164229 L 16.28743,17.03033 z "
       id="path40087"
       sodipodi:nodetypes="ccccc" />
    <path
       sodipodi:nodetypes="ccccc"
       id="path40089"
       d="M 16.283653,17.001635 L 16.249602,12.939408 L 12.317779,3.1073776 L 14.085096,13.588261 L 16.283653,17.001635 z "
       style="opacity:0.5;fill:#ffff00;fill-opacity:1;stroke:none;stroke-width:0.1;stroke-linecap:round;stroke-linejoin:round;stroke-miterlimit:4;stroke-dasharray:none;stroke-dashoffset:0;stroke-opacity:1" />
    <path
       style="opacity:0.5;fill:#ff00ff;fill-opacity:1;stroke:none;stroke-width:0.1;stroke-linecap:round;stroke-linejoin:round;stroke-miterlimit:4;stroke-dasharray:none;stroke-dashoffset:0;stroke-opacity:1"
       d="M 16.272582,16.974899 L 15.188303,13.059901 L 8.8457403,4.5805186 L 13.265487,14.246863 L 16.272582,16.974899 z "
       id="path40091"
       sodipodi:nodetypes="ccccc" />
    <path
       sodipodi:nodetypes="ccccc"
       id="path40093"
       d="M 16.254964,16.951942 L 14.194356,13.450973 L 5.8732887,6.9020966 L 12.644265,15.09515 L 16.254964,16.951942 z "
       style="opacity:0.5;fill:#00ffff;fill-opacity:1;stroke:none;stroke-width:0.1;stroke-linecap:round;stroke-linejoin:round;stroke-miterlimit:4;stroke-dasharray:none;stroke-dashoffset:0;stroke-opacity:1" />
    <path
       style="opacity:0.5;fill:#ffff00;fill-opacity:1;stroke:none;stroke-width:0.1;stroke-linecap:round;stroke-linejoin:round;stroke-miterlimit:4;stroke-dasharray:none;stroke-dashoffset:0;stroke-opacity:1"
       d="M 16.232006,16.934323 L 13.335491,14.085974 L 3.6029818,9.9138936 L 12.263765,16.075318 L 16.232006,16.934323 z "
       id="path40095"
       sodipodi:nodetypes="ccccc" />
    <path
       sodipodi:nodetypes="ccccc"
       id="path40097"
       d="M 16.20527,16.923253 L 12.670245,14.921629 L 2.1895523,13.410671 L 12.149916,17.120571 L 16.20527,16.923253 z "
       style="opacity:0.5;fill:#ff00ff;fill-opacity:1;stroke:none;stroke-width:0.1;stroke-linecap:round;stroke-linejoin:round;stroke-miterlimit:4;stroke-dasharray:none;stroke-dashoffset:0;stroke-opacity:1" />
    <path
       style="opacity:0.5;fill:#00ffff;fill-opacity:1;stroke:none;stroke-width:0.1;stroke-linecap:round;stroke-linejoin:round;stroke-miterlimit:4;stroke-dasharray:none;stroke-dashoffset:0;stroke-opacity:1"
       d="M 16.176576,16.919475 L 12.243947,15.900986 L 1.7293103,17.154113 L 12.310481,18.159674 L 16.176576,16.919475 z "
       id="path40099"
       sodipodi:nodetypes="ccccc" />
  </g>
  <rect
     id="rect1951"
     style="opacity:0.61162792;fill:#555753;fill-opacity:1;fill-rule:nonzero;stroke:none;stroke-width:0.69999999;stroke-linecap:round;stroke-linejoin:miter;stroke-miterlimit:4;stroke-dasharray:none;stroke-opacity:1"
     y="235"
     x="1.528429"
     height="101.91136"
     width="407.47156" />
  <path
     style="opacity:0.4;fill:#eeeeec;fill-opacity:1;stroke:none;stroke-width:0.1;stroke-linecap:round;stroke-linejoin:round;stroke-miterlimit:4;stroke-dasharray:none;stroke-dashoffset:0;stroke-opacity:1"
     d="M 250.25739,197.04218 L 343.10723,108.92123 L 340.19715,106.59316 L 322.15463,106.59316 L 313.84321,108.11046 L 250.25739,197.04218 z "
     id="path2167"
     sodipodi:nodetypes="cccccc" />
  <path
     style="opacity:0.1;fill:#eeeeec;fill-opacity:1;stroke:none;stroke-width:0.1;stroke-linecap:round;stroke-linejoin:round;stroke-miterlimit:4;stroke-dasharray:none;stroke-dashoffset:0;stroke-opacity:1"
     d="M 253.40392,193.96841 L 357.07563,108.92123 L 355.50535,106.91931 L 347.32197,106.91931 L 343.14361,108.84847 L 253.40392,193.96841 z "
     id="path2169"
     sodipodi:nodetypes="cccccc" />
  <path
     style="opacity:0.3;fill:#eeeeec;fill-opacity:1;stroke:none;stroke-width:0.1;stroke-linecap:round;stroke-linejoin:round;stroke-miterlimit:4;stroke-dasharray:none;stroke-dashoffset:0;stroke-opacity:1"
     d="M 357.08076,108.92257 L 357.08857,104.89129 L 355.51059,106.91528 L 357.08076,108.92257 z "
     id="path2183"
     sodipodi:nodetypes="cccc" />
  <path
     style="opacity:0.3;fill:#eeeeec;fill-opacity:1;stroke:none;stroke-width:0.1;stroke-linecap:round;stroke-linejoin:round;stroke-miterlimit:4;stroke-dasharray:none;stroke-dashoffset:0;stroke-opacity:1"
     d="M 347.35019,106.92446 L 343.08457,108.8932 L 340.20957,106.61195 L 343.20957,104.87758 L 347.35019,106.92446 z "
     id="path5094"
     sodipodi:nodetypes="ccccc" />
  <path
     style="opacity:0.2;fill:#eeeeec;fill-opacity:1;stroke:none;stroke-width:0.1;stroke-linecap:round;stroke-linejoin:round;stroke-miterlimit:4;stroke-dasharray:none;stroke-dashoffset:0;stroke-opacity:1"
     d="M 357.08649,104.95407 L 355.50453,106.92205 L 347.31958,106.92071 L 343.21208,104.87617 L 306.61674,70.350029 L 357.08649,104.95407 z "
     id="path6079"
     sodipodi:nodetypes="cccccc" />
  <path
     style="opacity:0.4;fill:#eeeeec;fill-opacity:1;stroke:none;stroke-width:0.1;stroke-linecap:round;stroke-linejoin:round;stroke-miterlimit:4;stroke-dasharray:none;stroke-dashoffset:0;stroke-opacity:1"
     d="M 343.21343,104.8774 L 340.22407,106.60342 L 322.1289,106.58925 L 313.80382,104.08123 L 303.21379,68.007739 L 306.63996,70.370779 L 343.21343,104.8774 z "
     id="path7050"
     sodipodi:nodetypes="ccccccc" />
  <path
     style="opacity:0.3;fill:#eeeeec;fill-opacity:1;stroke:none;stroke-width:0.1;stroke-linecap:round;stroke-linejoin:round;stroke-miterlimit:4;stroke-dasharray:none;stroke-dashoffset:0;stroke-opacity:1"
     d="M 208.09582,232 L 250.27948,197.01843 L 313.76723,108.21783 L 223.11732,198.66462 L 208.09582,232 z "
     id="path2161"
     sodipodi:nodetypes="ccccc" />
  <path
     style="opacity:0.6;fill:#eeeeec;fill-opacity:1;stroke:none;stroke-width:0.1;stroke-linecap:round;stroke-linejoin:round;stroke-miterlimit:4;stroke-dasharray:none;stroke-dashoffset:0;stroke-opacity:1"
     d="M 208.14727,231.94856 L 223.16877,198.56173 L 207.47585,108.11111 L 191.42813,198.45885 L 208.14727,231.94856 z "
     id="path2163"
     sodipodi:nodetypes="ccccc" />
  <path
     style="opacity:0.3;fill:#eeeeec;fill-opacity:1;stroke:none;stroke-width:0.1;stroke-linecap:round;stroke-linejoin:round;stroke-miterlimit:4;stroke-dasharray:none;stroke-dashoffset:0;stroke-opacity:1"
     d="M 208.13441,231.94856 L 191.45552,198.47904 L 101.29914,107.91831 L 162.82555,195.16646 L 208.13441,231.94856 z "
     id="path2165" />
  <path
     style="opacity:0.5;fill:#eeeeec;fill-opacity:1;stroke:none;stroke-width:0.1;stroke-linecap:round;stroke-linejoin:round;stroke-miterlimit:4;stroke-dasharray:none;stroke-dashoffset:0;stroke-opacity:1"
     d="M 222.78271,199.01221 L 313.86364,108.12408 L 306.66155,106.68366 L 276.61855,106.88944 L 263.18842,108.90295 L 222.78271,199.01221 z "
     id="path2171"
     sodipodi:nodetypes="cccccc" />
  <path
     style="opacity:0.8;fill:#eeeeec;fill-opacity:1;stroke:none;stroke-width:0.1;stroke-linecap:round;stroke-linejoin:round;stroke-miterlimit:4;stroke-dasharray:none;stroke-dashoffset:0;stroke-opacity:1"
     d="M 223.11732,198.25307 L 207.4785,108.12421 L 218.5903,106.88944 L 251.30835,106.88944 L 263.24324,108.94718 L 223.11732,198.25307 z "
     id="path2173"
     sodipodi:nodetypes="cccccc" />
  <path
     style="opacity:0.8;fill:#eeeeec;fill-opacity:1;stroke:none;stroke-width:0.1;stroke-linecap:round;stroke-linejoin:round;stroke-miterlimit:4;stroke-dasharray:none;stroke-dashoffset:0;stroke-opacity:1"
     d="M 149.6065,108.67361 L 162.00246,106.47789 L 197.80713,106.06634 L 207.4785,108.12408 L 191.40241,198.61318 L 149.6065,108.67361 z "
     id="path2175"
     sodipodi:nodetypes="cccccc" />
  <path
     style="opacity:0.5;fill:#eeeeec;fill-opacity:1;stroke:none;stroke-width:0.1;stroke-linecap:round;stroke-linejoin:round;stroke-miterlimit:4;stroke-dasharray:none;stroke-dashoffset:0;stroke-opacity:1"
     d="M 149.65602,108.7414 L 136.89803,106.27212 L 111.99939,105.86057 L 101.04192,107.66109 L 191.24808,198.2788 L 149.65602,108.7414 z "
     id="path2177"
     sodipodi:nodetypes="cccccc" />
  <path
     style="opacity:0.4;fill:#eeeeec;fill-opacity:1;stroke:none;stroke-width:0.1;stroke-linecap:round;stroke-linejoin:round;stroke-miterlimit:4;stroke-dasharray:none;stroke-dashoffset:0;stroke-opacity:1"
     d="M 162.877,195.14074 L 67.552212,107.30099 L 73.313882,104.8317 L 90.496008,105.24324 L 101.11909,107.63536 L 162.877,195.14074 z "
     id="path2179"
     sodipodi:nodetypes="cccccc" />
  <path
     style="opacity:0.1;fill:#eeeeec;fill-opacity:1;stroke:none;stroke-width:0.1;stroke-linecap:round;stroke-linejoin:round;stroke-miterlimit:4;stroke-dasharray:none;stroke-dashoffset:0;stroke-opacity:1"
     d="M 161.79669,194.1376 L 55,107.30099 L 57.880836,105.44902 L 61.996315,105.24325 L 67.52649,107.27526 L 161.79669,194.1376 z "
     id="path2181"
     sodipodi:nodetypes="cccccc" />
  <path
     style="opacity:0.7;fill:#eeeeec;fill-opacity:1;stroke:none;stroke-width:0.1;stroke-linecap:round;stroke-linejoin:round;stroke-miterlimit:4;stroke-dasharray:none;stroke-dashoffset:0;stroke-opacity:1"
     d="M 322.13926,106.58851 L 313.81504,108.11586 L 306.8502,106.7057 L 313.7877,104.0807 L 322.13926,106.58851 z "
     id="path5096"
     sodipodi:nodetypes="ccccc" />
  <path
     style="opacity:0.9;fill:#eeeeec;fill-opacity:1;stroke:none;stroke-width:0.1;stroke-linecap:round;stroke-linejoin:round;stroke-miterlimit:4;stroke-dasharray:none;stroke-dashoffset:0;stroke-opacity:1"
     d="M 276.38145,106.92445 L 263.09239,108.92445 L 251.38145,106.92445 L 263.1627,103.48695 L 276.38145,106.92445 z "
     id="path5098"
     sodipodi:nodetypes="ccccc" />
  <path
     style="opacity:0;fill:#eeeeec;fill-opacity:1;stroke:none;stroke-width:0.1;stroke-linecap:round;stroke-linejoin:round;stroke-miterlimit:4;stroke-dasharray:none;stroke-dashoffset:0;stroke-opacity:1"
     d="M 218.54551,106.88929 L 207.45957,108.13148 L 197.81895,106.0807 L 207.44395,103.8307 L 218.54551,106.88929 z "
     id="path5100"
     sodipodi:nodetypes="ccccc" />
  <path
     style="opacity:0.9;fill:#eeeeec;fill-opacity:1;stroke:none;stroke-width:0.1;stroke-linecap:round;stroke-linejoin:round;stroke-miterlimit:4;stroke-dasharray:none;stroke-dashoffset:0;stroke-opacity:1"
     d="M 136.9127,106.27601 L 149.49082,108.71351 L 162.00645,106.48695 L 149.38145,103.36195 L 136.9127,106.27601 z "
     id="path5102"
     sodipodi:nodetypes="ccccc" />
  <path
     style="opacity:0.7;fill:#eeeeec;fill-opacity:1;stroke:none;stroke-width:0.1;stroke-linecap:round;stroke-linejoin:round;stroke-miterlimit:4;stroke-dasharray:none;stroke-dashoffset:0;stroke-opacity:1"
     d="M 90.56895,105.2682 L 101.12754,107.6432 L 112.01036,105.85804 L 101.2252,102.8307 L 90.56895,105.2682 z "
     id="path5104"
     sodipodi:nodetypes="ccccc" />
  <path
     style="opacity:0.3;fill:#eeeeec;fill-opacity:1;stroke:none;stroke-width:0.1;stroke-linecap:round;stroke-linejoin:round;stroke-miterlimit:4;stroke-dasharray:none;stroke-dashoffset:0;stroke-opacity:1"
     d="M 73.299419,104.83851 L 67.553325,107.31508 L 62.00645,105.25258 L 67.408794,102.94789 L 73.299419,104.83851 z "
     id="path5106"
     sodipodi:nodetypes="ccccc" />
  <path
     style="opacity:0.3;fill:#eeeeec;fill-opacity:1;stroke:none;stroke-width:0.1;stroke-linecap:round;stroke-linejoin:round;stroke-miterlimit:4;stroke-dasharray:none;stroke-dashoffset:0;stroke-opacity:1"
     d="M 57.889262,105.44007 L 55.002544,107.30336 L 55.002544,102.98695 L 57.889262,105.44007 z "
     id="path5108"
     sodipodi:nodetypes="cccc" />
  <path
     style="opacity:0.3;fill:#eeeeec;fill-opacity:1;stroke:none;stroke-width:0.1;stroke-linecap:round;stroke-linejoin:round;stroke-miterlimit:4;stroke-dasharray:none;stroke-dashoffset:0;stroke-opacity:1"
     d="M 313.79551,104.0807 L 306.81895,106.73695 L 276.2877,106.9557 L 263.2252,103.5182 L 250.13145,69.424449 L 313.79551,104.0807 z "
     id="path7052"
     sodipodi:nodetypes="cccccc" />
  <path
     style="opacity:0.7;fill:#eeeeec;fill-opacity:1;stroke:none;stroke-width:0.1;stroke-linecap:round;stroke-linejoin:round;stroke-miterlimit:4;stroke-dasharray:none;stroke-dashoffset:0;stroke-opacity:1"
     d="M 263.20702,103.47356 L 251.42927,106.90965 L 218.49356,106.88757 L 207.44501,103.82711 L 250.13107,69.421939 L 263.20702,103.47356 z "
     id="path7054"
     sodipodi:nodetypes="cccccc" />
  <path
     style="opacity:0.7;fill:#eeeeec;fill-opacity:1;stroke:none;stroke-width:0.1;stroke-linecap:round;stroke-linejoin:round;stroke-miterlimit:4;stroke-dasharray:none;stroke-dashoffset:0;stroke-opacity:1"
     d="M 207.45607,103.82711 L 197.83278,106.08102 L 161.95816,106.50086 L 149.37388,103.36307 L 164.13473,69.377759 L 207.45607,103.82711 z "
     id="path7056"
     sodipodi:nodetypes="cccccc" />
  <path
     style="opacity:0.3;fill:#eeeeec;fill-opacity:1;stroke:none;stroke-width:0.1;stroke-linecap:round;stroke-linejoin:round;stroke-miterlimit:4;stroke-dasharray:none;stroke-dashoffset:0;stroke-opacity:1"
     d="M 149.36867,103.36574 L 136.93843,106.27735 L 112.01782,105.86195 L 101.23537,102.83274 L 164.13473,69.377749 L 149.36867,103.36574 z "
     id="path7058"
     sodipodi:nodetypes="cccccc" />
  <path
     style="opacity:0.4;fill:#eeeeec;fill-opacity:1;stroke:none;stroke-width:0.1;stroke-linecap:round;stroke-linejoin:round;stroke-miterlimit:4;stroke-dasharray:none;stroke-dashoffset:0;stroke-opacity:1"
     d="M 101.24642,102.83275 L 90.639817,105.26343 L 73.293604,104.84358 L 67.404175,102.95116 L 106.15197,69.908089 L 101.24642,102.83275 z "
     id="path7060"
     sodipodi:nodetypes="cccccc" />
  <path
     style="opacity:0.2;fill:#eeeeec;fill-opacity:1;stroke:none;stroke-width:0.1;stroke-linecap:round;stroke-linejoin:round;stroke-miterlimit:4;stroke-dasharray:none;stroke-dashoffset:0;stroke-opacity:1"
     d="M 67.404888,102.94789 L 61.998637,105.26039 L 57.88145,105.44789 L 55.022075,103.01039 L 104.24083,71.537729 L 67.404888,102.94789 z "
     id="path7062"
     sodipodi:nodetypes="cccccc" />
  <path
     style="opacity:0.5;fill:#eeeeec;fill-opacity:1;stroke:none;stroke-width:0.1;stroke-linecap:round;stroke-linejoin:round;stroke-miterlimit:4;stroke-dasharray:none;stroke-dashoffset:0;stroke-opacity:1"
     d="M 101.25254,102.82679 L 106.1627,69.877569 L 143.88145,56.676319 L 149.88145,56.666216 L 164.13145,69.377569 L 101.25254,102.82679 z "
     id="path7064"
     sodipodi:nodetypes="cccccc" />
  <path
     style="opacity:1;fill:#eeeeec;fill-opacity:1;stroke:none;stroke-width:0.1;stroke-linecap:round;stroke-linejoin:round;stroke-miterlimit:4;stroke-dasharray:none;stroke-dashoffset:0;stroke-opacity:1"
     d="M 207.45176,103.82289 L 250.14707,69.408829 L 207.14707,56.674459 L 201.88926,56.674449 L 164.13145,69.361949 L 207.45176,103.82289 z "
     id="path7066"
     sodipodi:nodetypes="cccccc" />
  <path
     style="opacity:0.5;fill:#eeeeec;fill-opacity:1;stroke:none;stroke-width:0.1;stroke-linecap:round;stroke-linejoin:round;stroke-miterlimit:4;stroke-dasharray:none;stroke-dashoffset:0;stroke-opacity:1"
     d="M 313.80333,104.0807 L 303.21739,68.018199 L 272.38145,56.674449 L 264.60801,56.674449 L 250.14708,69.432259 L 313.80333,104.0807 z "
     id="path7068"
     sodipodi:nodetypes="cccccc" />
  <path
     style="opacity:0.3;fill:#eeeeec;fill-opacity:1;stroke:none;stroke-width:0.1;stroke-linecap:round;stroke-linejoin:round;stroke-miterlimit:4;stroke-dasharray:none;stroke-dashoffset:0;stroke-opacity:1"
     d="M 303.22911,68.022109 L 288.59238,56.674449 L 272.39707,56.678359 L 303.22911,68.022109 z "
     id="path7070"
     sodipodi:nodetypes="cccc" />
  <path
     style="opacity:0.2;fill:#eeeeec;fill-opacity:1;stroke:none;stroke-width:0.1;stroke-linecap:round;stroke-linejoin:round;stroke-miterlimit:4;stroke-dasharray:none;stroke-dashoffset:0;stroke-opacity:1"
     d="M 264.60411,56.678359 L 250.16661,69.416639 L 207.1627,56.682259 L 264.60411,56.678359 z "
     id="path8059"
     sodipodi:nodetypes="cccc" />
  <path
     style="opacity:0.2;fill:#eeeeec;fill-opacity:1;stroke:none;stroke-width:0.1;stroke-linecap:round;stroke-linejoin:round;stroke-miterlimit:4;stroke-dasharray:none;stroke-dashoffset:0;stroke-opacity:1"
     d="M 201.89317,56.674449 L 149.87754,56.674449 L 164.11973,69.369759 L 201.89317,56.674449 z "
     id="path8061"
     sodipodi:nodetypes="cccc" />
  <path
     style="opacity:0.3;fill:#eeeeec;fill-opacity:1;stroke:none;stroke-width:0.1;stroke-linecap:round;stroke-linejoin:round;stroke-miterlimit:4;stroke-dasharray:none;stroke-dashoffset:0;stroke-opacity:1"
     d="M 143.88649,56.672685 L 126.1627,54.889293 L 106.1627,69.889289 L 143.88649,56.672685 z "
     id="path8063"
     sodipodi:nodetypes="cccc" />
  <path
     id="path2276"
     style="fill:#ffffff;fill-opacity:0.75688076;fill-rule:nonzero;stroke:none;stroke-width:0.5;stroke-linecap:round;stroke-linejoin:round;stroke-miterlimit:4;stroke-dasharray:none;stroke-dashoffset:4;stroke-opacity:1"
     d="M 114.1548,-60.199931 L 114.1548,-88.667638 L 114.1548,-60.199931 z " />
  <text
     xml:space="preserve"
     id="text2840"
     style="font-size:122.235466px;font-style:normal;font-weight:normal;fill:#eeeeec;fill-opacity:1;stroke:none;stroke-width:1px;stroke-linecap:butt;stroke-linejoin:miter;stroke-opacity:1;font-family:Bitstream Vera Sans"
     y="330.3895"
     x="156.52925"><tspan
       id="tspan2842"
       y="330.3895"
       x="156.52925">C</tspan></text>
  <g
     transform="matrix(0.1306165,0.4874676,-0.4874676,0.1306165,230.32812,-8.8761932)"
     id="g29892">
    <path
       sodipodi:type="arc"
       style="opacity:1;fill:url(#radialGradient29902);fill-opacity:1;stroke:none;stroke-width:0.1;stroke-linecap:round;stroke-linejoin:round;stroke-miterlimit:4;stroke-dasharray:none;stroke-dashoffset:0;stroke-opacity:1"
       id="path29894"
       sodipodi:cx="221.67798"
       sodipodi:cy="62.763889"
       sodipodi:rx="14.495689"
       sodipodi:ry="41.719299"
       d="M 207.1944,61.058527 A 14.495689,41.719299 0 1 1 207.18653,61.754825"
       sodipodi:start="3.1824811"
       sodipodi:end="9.4489673"
       sodipodi:open="true"
       transform="matrix(0.9659258,-0.258819,0.258819,0.9659258,-32.216821,65.177338)"
       inkscape:transform-center-y="-40.298227"
       inkscape:transform-center-x="10.797971" />
    <path
       transform="matrix(0.258819,0.9659258,-0.9659258,0.258819,252.49921,-132.44051)"
       sodipodi:open="true"
       sodipodi:end="9.4489673"
       sodipodi:start="3.1824811"
       d="M 207.1944,61.058527 A 14.495689,41.719299 0 1 1 207.18653,61.754825"
       sodipodi:ry="41.719299"
       sodipodi:rx="14.495689"
       sodipodi:cy="62.763889"
       sodipodi:cx="221.67798"
       id="path29896"
       style="opacity:1;fill:url(#radialGradient29904);fill-opacity:1;stroke:none;stroke-width:0.1;stroke-linecap:round;stroke-linejoin:round;stroke-miterlimit:4;stroke-dasharray:none;stroke-dashoffset:0;stroke-opacity:1"
       sodipodi:type="arc"
       inkscape:transform-center-x="-40.298228"
       inkscape:transform-center-y="-10.797972" />
    <path
       inkscape:transform-center-y="40.298226"
       inkscape:transform-center-x="-10.797969"
       sodipodi:type="arc"
       style="opacity:1;fill:url(#radialGradient29906);fill-opacity:1;stroke:none;stroke-width:0.1;stroke-linecap:round;stroke-linejoin:round;stroke-miterlimit:4;stroke-dasharray:none;stroke-dashoffset:0;stroke-opacity:1"
       id="path29898"
       sodipodi:cx="221.67798"
       sodipodi:cy="62.763889"
       sodipodi:rx="14.495689"
       sodipodi:ry="41.719299"
       d="M 207.1944,61.058527 A 14.495689,41.719299 0 1 1 207.18653,61.754825"
       sodipodi:start="3.1824811"
       sodipodi:end="9.4489673"
       sodipodi:open="true"
       transform="matrix(-0.9659258,0.258819,-0.258819,-0.9659258,450.11705,152.27552)" />
    <path
       transform="matrix(-0.258819,-0.9659258,0.9659258,-0.258819,165.40102,349.89336)"
       sodipodi:open="true"
       sodipodi:end="9.4489673"
       sodipodi:start="3.1824811"
       d="M 207.1944,61.058527 A 14.495689,41.719299 0 1 1 207.18653,61.754825"
       sodipodi:ry="41.719299"
       sodipodi:rx="14.495689"
       sodipodi:cy="62.763889"
       sodipodi:cx="221.67798"
       id="path29900"
       style="opacity:1;fill:url(#radialGradient29908);fill-opacity:1;stroke:none;stroke-width:0.1;stroke-linecap:round;stroke-linejoin:round;stroke-miterlimit:4;stroke-dasharray:none;stroke-dashoffset:0;stroke-opacity:1"
       sodipodi:type="arc"
       inkscape:transform-center-x="40.298229"
       inkscape:transform-center-y="10.797967" />
  </g>
  <g
     id="g29878"
     transform="matrix(0.9998727,0.8456282,-0.8456282,0.9998727,88.968726,-178.68029)">
    <path
       inkscape:transform-center-x="10.797971"
       inkscape:transform-center-y="-40.298227"
       transform="matrix(0.9659258,-0.258819,0.258819,0.9659258,-32.216821,65.177338)"
       sodipodi:open="true"
       sodipodi:end="9.4489673"
       sodipodi:start="3.1824811"
       d="M 207.1944,61.058527 A 14.495689,41.719299 0 1 1 207.18653,61.754825"
       sodipodi:ry="41.719299"
       sodipodi:rx="14.495689"
       sodipodi:cy="62.763889"
       sodipodi:cx="221.67798"
       id="path27916"
       style="opacity:1;fill:url(#radialGradient29884);fill-opacity:1;stroke:none;stroke-width:0.1;stroke-linecap:round;stroke-linejoin:round;stroke-miterlimit:4;stroke-dasharray:none;stroke-dashoffset:0;stroke-opacity:1"
       sodipodi:type="arc" />
    <path
       inkscape:transform-center-y="-10.797972"
       inkscape:transform-center-x="-40.298228"
       sodipodi:type="arc"
       style="opacity:1;fill:url(#radialGradient29886);fill-opacity:1;stroke:none;stroke-width:0.1;stroke-linecap:round;stroke-linejoin:round;stroke-miterlimit:4;stroke-dasharray:none;stroke-dashoffset:0;stroke-opacity:1"
       id="path29864"
       sodipodi:cx="221.67798"
       sodipodi:cy="62.763889"
       sodipodi:rx="14.495689"
       sodipodi:ry="41.719299"
       d="M 207.1944,61.058527 A 14.495689,41.719299 0 1 1 207.18653,61.754825"
       sodipodi:start="3.1824811"
       sodipodi:end="9.4489673"
       sodipodi:open="true"
       transform="matrix(0.258819,0.9659258,-0.9659258,0.258819,252.49921,-132.44051)" />
    <path
       transform="matrix(-0.9659258,0.258819,-0.258819,-0.9659258,450.11705,152.27552)"
       sodipodi:open="true"
       sodipodi:end="9.4489673"
       sodipodi:start="3.1824811"
       d="M 207.1944,61.058527 A 14.495689,41.719299 0 1 1 207.18653,61.754825"
       sodipodi:ry="41.719299"
       sodipodi:rx="14.495689"
       sodipodi:cy="62.763889"
       sodipodi:cx="221.67798"
       id="path29870"
       style="opacity:1;fill:url(#radialGradient29888);fill-opacity:1;stroke:none;stroke-width:0.1;stroke-linecap:round;stroke-linejoin:round;stroke-miterlimit:4;stroke-dasharray:none;stroke-dashoffset:0;stroke-opacity:1"
       sodipodi:type="arc"
       inkscape:transform-center-x="-10.797969"
       inkscape:transform-center-y="40.298226" />
    <path
       inkscape:transform-center-y="10.797967"
       inkscape:transform-center-x="40.298229"
       sodipodi:type="arc"
       style="opacity:1;fill:url(#radialGradient29890);fill-opacity:1;stroke:none;stroke-width:0.1;stroke-linecap:round;stroke-linejoin:round;stroke-miterlimit:4;stroke-dasharray:none;stroke-dashoffset:0;stroke-opacity:1"
       id="path29874"
       sodipodi:cx="221.67798"
       sodipodi:cy="62.763889"
       sodipodi:rx="14.495689"
       sodipodi:ry="41.719299"
       d="M 207.1944,61.058527 A 14.495689,41.719299 0 1 1 207.18653,61.754825"
       sodipodi:start="3.1824811"
       sodipodi:end="9.4489673"
       sodipodi:open="true"
       transform="matrix(-0.258819,-0.9659258,0.9659258,-0.258819,165.40102,349.89336)" />
  </g>
</svg>
