{
    "name": "Artikulate",
    "parent": "kde/kdeedu",
    "repository": ["git", "artikulate"],
    "icon": ["own", "icons/hi{size}-app-artikulate.png"],

    "description":
        "<p><strong>Artikulate</strong> is a pronunciation trainer that helps improving and perfecting a learner's pronunciation skills for a foreign language.</p>",
    "age": "School",
    "subject": "Language",

    "features":
    [
        "Training lessons for Bengali and Polish are available.",
    	"Editor to create courses for your own language."
    ],
    "homepage": "/artikulate/",
    "kde-apps.org": false,

    "userbase": "Artikulate",
    "forum": 21,
    "handbook": "http://docs.kde.org/development/en/kdeedu/artikulate/index.html",

    "irc": "#kde-artikulate",
    "mailing lists": "kde-edu@kde.org",

    "cia.vc": "kde/artikulate",
    "bugs": "artikulate"
}
