{
    "authors":[
        [
            "Primoz Anzur",
            "Previous maintainer",
            "zerokode@gmx.net",
            null
        ],
        [
            "Anne-Marie Mahfouf",
            "Current maintainer, author",
            "annma@kde.org",
            null
        ]
    ],
    "category":"Education",
    "credits":[
        [
            "Stefan B\u00f6hmann",
            "Coding help",
            "kde@hilefoks.org",
            null
        ],
        [
            "Stefan Asserh\u00e4ll",
            "Swedish data files, coding help, transparent pictures and i18n fixes",
            "stefan.asserhall@telia.com",
            null
        ],
        [
            "eXParTaKus",
            "Spanish data files",
            "expartakus@expartakus.com",
            null
        ],
        [
            "Erik Kj\u00e6r Pedersenn",
            "Danish data files",
            "erik@mpim-bonn.mpg.de",
            null
        ],
        [
            "Niko Lewman",
            "Finnish data files",
            "niko.lewman@edu.hel.fi",
            null
        ],
        [
            "Jo\u00e3o Sebasti\u00e3o de Oliveira Bueno",
            "Brazilian Portuguese data files",
            "gwidion@mpc.com.br",
            null
        ],
        [
            "Antoni Bella",
            "Catalan data files",
            "bella5@teleline.es",
            null
        ],
        [
            "Giovanni Venturi",
            "Italian data files",
            "jumpyj@tiscali.it",
            null
        ],
        [
            "Rinse",
            "Dutch data files",
            "rinse@kde.nl",
            null
        ],
        [
            "Luk\u00e1\u0161 Tinkl",
            "Czech data files",
            "lukas@kde.org",
            null
        ],
        [
            "Tamas Szanto",
            "Hungarian data files",
            "tszanto@mol.hu",
            null
        ],
        [
            "Torger \u00c5ge Sinnes",
            "Norwegian (Bokm\u00e5l) data files",
            "org-a-s@online.no",
            null
        ],
        [
            "Roger Kovacs",
            "Tajik data files",
            "rkovacs@khujand.org",
            null
        ],
        [
            "Chusslove Illich",
            "Serbian (Cyrillic and Latin) data files",
            "chaslav@sezampro.yu",
            null
        ],
        [
            "Jure Repinc",
            "Slovenian data files",
            "jlp@holodeck1.com",
            null
        ],
        [
            "Pedro Morais",
            "Portuguese data files",
            "Morais@kde.org",
            null
        ],
        [
            "Gaute Hvoslef Kvalnes",
            "Norwegian (Nynorsk) data files",
            "gaute@verdsveven.com",
            null
        ],
        [
            "Mehmet \u00d6zel",
            "Turkish data files",
            "mehmet_ozel2003@hotmail.com",
            null
        ],
        [
            "\u0427\u0435\u0440\u0435\u043f\u0430\u043d\u043e\u0432 \u0410\u043d\u0434\u0440\u0435\u0439",
            "Russian data files",
            "sibskull@mail.ru",
            null
        ],
        [
            "Radostin Radnev",
            "Bulgarian data files",
            "radnev@yahoo.com",
            null
        ],
        [
            "Kevin Patrick Scannell",
            "Irish (Gaelic) data files",
            "scannell@slu.edu",
            null
        ],
        [
            "Matt Howe",
            "Softer Hangman Pictures",
            "mdhowe@bigfoot.com",
            null
        ],
        [
            "Benjamin Meyer",
            "Coding help",
            "ben@meyerhome.net",
            null
        ],
        [
            "Robert Gogolok",
            "Coding help",
            "robertgogolok@gmx.de",
            null
        ],
        [
            "Lubos Lun\u00e0k",
            "Coding help",
            "l.lunak@kde.org",
            null
        ],
        [
            "Albert Astals Cid",
            "Coding help, fixed a lot of things",
            "aacid@kde.org",
            null
        ],
        [
            "Peter Hedlund",
            "Code for generating icons for the characters toolbar",
            "peter.hedlund@kdemail.net",
            null
        ],
        [
            "Inge Wallin",
            "Code cleaning",
            "inge@lysator.liu.se",
            null
        ]
    ],
    "generic name":"Hangman Game",
    "license":"GPL"
}
