{
    "authors":[
        [
            "Peter Hedlund",
            "",
            "peter.hedlund@kdemail.net",
            null
        ]
    ],
    "category":"Education",
    "credits":[
        [
            "Anne-Marie Mahfouf",
            "Former KDE Education Maintainer",
            "annma@kde.org",
            null
        ],
        [
            "Martin Pfeiffer",
            "Leitner System and several code contributions",
            "hubipete@gmx.net",
            null
        ]
    ],
    "generic name":"Flash Card Trainer",
    "license":"GPL"
}
