{
    "authors":[
        [
            "Sandro Andrade",
            "Original Author",
            "sandroandrade@kde.org",
            "http://sandroandrade.org"
        ],
        [
            "Alessandro Longo",
            "Minuet Artwork",
            "alessandro.longo@kdemail.net",
            "http://www.alexl.netsons.org/"
        ],
        [
            "Ayush Shah",
            "Developer",
            "1595ayush@gmail.com",
            "https://ayushashah.wordpress.com"
        ],
        [
            "Stefan Toncu",
            "Developer",
            "stefantoncu29@gmail.com",
            "https://stefantoncu29.wordpress.com"
        ]
    ],
    "category":"Education",
    "credits":[],
    "generic name":"Music Education Software",
    "license":"GPL"
}
